{
    "key": "group_5a86c760a193d",
    "title": "Partners",
    "location": [
        [
            {
                "param": "post_type",
                "operator": "==",
                "value": "partner"
            }
        ]
    ],
    "menu_order": 0,
    "position": "normal",
    "style": "default",
    "label_placement": "top",
    "instruction_placement": "label",
    "hide_on_screen": "",
    "active": 1,
    "description": "",
    "modified": 1532966358,
    "fields": [
        {
            "key": "field_5a86c7759c15f",
            "label": "Partner Description",
            "name": "partner_description",
            "type": "wysiwyg",
            "instructions": "",
            "required": 0,
            "conditional_logic": 0,
            "wrapper": {
                "width": "",
                "class": "",
                "id": ""
            },
            "default_value": "",
            "tabs": "all",
            "toolbar": "full",
            "media_upload": 1,
            "delay": 0
        },
        {
            "key": "field_5a86ca81a1874",
            "label": "Partner Image",
            "name": "partner_image",
            "type": "image",
            "instructions": "",
            "required": 0,
            "conditional_logic": 0,
            "wrapper": {
                "width": "33",
                "class": "",
                "id": ""
            },
            "return_format": "array",
            "preview_size": "thumbnail",
            "library": "all",
            "min_width": "",
            "min_height": "",
            "min_size": "",
            "max_width": "",
            "max_height": "",
            "max_size": "",
            "mime_types": ""
        },
        {
            "key": "field_5a86fd680f763",
            "label": "Partner Stand Number",
            "name": "partner_stand_number",
            "type": "text",
            "instructions": "The stand number of partner",
            "required": 0,
            "conditional_logic": 0,
            "wrapper": {
                "width": "33",
                "class": "",
                "id": ""
            },
            "default_value": "",
            "placeholder": "",
            "prepend": "",
            "append": "",
            "maxlength": ""
        },
        {
            "key": "field_5a86fd900f764",
            "label": "Partner URL",
            "name": "partner_url",
            "type": "url",
            "instructions": "The URL of the partners website.",
            "required": 0,
            "conditional_logic": 0,
            "wrapper": {
                "width": "33",
                "class": "",
                "id": ""
            },
            "default_value": "",
            "placeholder": ""
        }
    ]
}